{
  "images" : [
    {
      "filename" : "severus-snape-hermione-granger-ron-weasley-harry-potter-hp1-6x4.jpg",
      "idiom" : "universal"
    }
  ],
  "info" : {
    "author" : "xcode",
    "version" : 1
  }
}
